projects/mux/mux41_thw/vlt_dump.vcd
$version Generated by VerilatedVcd $end
$date Wed Apr  6 17:24:36 2022 $end
$timescale 1s $end

 $scope module TOP $end
  $var wire  2 7 F [1:0] $end
  $var wire  2 2 X0 [1:0] $end
  $var wire  2 3 X1 [1:0] $end
  $var wire  2 4 X2 [1:0] $end
  $var wire  2 5 X3 [1:0] $end
  $var wire  2 6 Y [1:0] $end
  $scope module top $end
   $var wire  2 7 F [1:0] $end
   $var wire  2 2 X0 [1:0] $end
   $var wire  2 3 X1 [1:0] $end
   $var wire  2 4 X2 [1:0] $end
   $var wire  2 5 X3 [1:0] $end
   $var wire  2 6 Y [1:0] $end
   $scope module i0 $end
    $var wire  2 7 F [1:0] $end
    $var wire  2 2 X0 [1:0] $end
    $var wire  2 3 X1 [1:0] $end
    $var wire  2 4 X2 [1:0] $end
    $var wire  2 5 X3 [1:0] $end
    $var wire  2 6 Y [1:0] $end
    $scope module i0 $end
     $var wire 32 9 DATA_LEN [31:0] $end
     $var wire 32 9 KEY_LEN [31:0] $end
     $var wire 32 8 NR_KEY [31:0] $end
     $var wire  2 : default_out [1:0] $end
     $var wire  2 6 key [1:0] $end
     $var wire 16 # lut [15:0] $end
     $var wire  2 7 out [1:0] $end
     $scope module i0 $end
      $var wire 32 9 DATA_LEN [31:0] $end
      $var wire 32 ; HAS_DEFAULT [31:0] $end
      $var wire 32 9 KEY_LEN [31:0] $end
      $var wire 32 8 NR_KEY [31:0] $end
      $var wire 32 8 PAIR_LEN [31:0] $end
      $var wire  2 , data_list(0) [1:0] $end
      $var wire  2 - data_list(1) [1:0] $end
      $var wire  2 . data_list(2) [1:0] $end
      $var wire  2 / data_list(3) [1:0] $end
      $var wire  2 : default_out [1:0] $end
      $var wire  1 1 hit $end
      $var wire 32 < i [31:0] $end
      $var wire  2 6 key [1:0] $end
      $var wire  2 ( key_list(0) [1:0] $end
      $var wire  2 ) key_list(1) [1:0] $end
      $var wire  2 * key_list(2) [1:0] $end
      $var wire  2 + key_list(3) [1:0] $end
      $var wire 16 # lut [15:0] $end
      $var wire  2 0 lut_out [1:0] $end
      $var wire  2 7 out [1:0] $end
      $var wire  4 $ pair_list(0) [3:0] $end
      $var wire  4 % pair_list(1) [3:0] $end
      $var wire  4 & pair_list(2) [3:0] $end
      $var wire  4 ' pair_list(3) [3:0] $end
     $upscope $end
    $upscope $end
   $upscope $end
  $upscope $end
 $upscope $end
$enddefinitions $end


#1
b1110010010001100 #
b1100 $
b1000 %
b0100 &
b1110 '
b11 (
b10 )
b01 *
b11 +
b00 ,
b00 -
b00 .
b10 /
b00 0
01
b10 2
b00 3
b00 4
b00 5
b00 6
b11 7
b00000000000000000000000000000100 8
b00000000000000000000000000000010 9
b11 :
b00000000000000000000000000000001 ;
b00000000000000000000000000000100 <
#2
b0001010010001100 #
b0001 '
b00 +
b01 /
b01 0
11
b01 2
b01 7
#3
b1110010010001100 #
b1110 '
b11 +
b10 /
b00 0
b10 2
b01 6
b00 7
#4
b0010010010001100 #
b0010 '
b00 +
b10 2
#5
b1010010010001100 #
b1010 '
b10 +
b10 0
b10 2
b10 6
b10 7
#6
b0100010010001100 #
b0100 '
b01 +
b00 /
b00 0
b00 2
b00 7
#7
b0111010010001100 #
b0111 '
b11 /
b11 2
b11 6
#8
b1001010010001100 #
b1001 '
b10 +
b01 /
b01 2
